﻿{
  "$schema": "http://json.schemastore.org/launchsettings.json",
  "iisSettings": {
    "windowsAuthentication": false, 
    "anonymousAuthentication": true, 
    "iisExpress": {
      "applicationUrl": "http://localhost:64092",
      "sslPort": 44353
    }
  },
  "profiles": {
    "SimpleWebServiceNET": {
      "commandName": "Project",
      "launchBrowser": true,
      "launchUrl": "api/categories",
      "applicationUrl": "https://localhost:5001;http://localhost:5000",
      "environmentVariables": {
        "ASPNETCORE_ENVIRONMENT": "Development"
      }
    }
  }
}